[{
	"name": "id",
	"dbType": "increments",
	"htmlType": "",
	"validations": "",
	"searchable": false,
	"fillable": false,
	"primary": true,
	"inForm": false,
	"inIndex": false
},
{
	"name": "title",
	"dbType": "string",
	"htmlType": "text",
	"validations": "required",
	"searchable": true
},
{
	"name": "image",
	"dbType": "string",
	"htmlType": "file",
	"validations": "file|image"
},
{
	"name": "description",
	"dbType": "text",
	"htmlType": "textarea"
},
{
	"name": "emails",
	"dbType": "text",
	"htmlType": "textarea"
},
{
	"name": "menu",
	"dbType": "string",
	"htmlType": "file",
	"validations": "file"
},
{
	"name": "created_at",
	"dbType": "timestamp",
	"htmlType": "",
	"validations": "",
	"searchable": false,
	"fillable": false,
	"primary": false,
	"inForm": false,
	"inIndex": false
},
{
	"name": "updated_at",
	"dbType": "timestamp",
	"htmlType": "",
	"validations": "",
	"searchable": false,
	"fillable": false,
	"primary": false,
	"inForm": false,
	"inIndex": false
}
]